…
mixedSpecStats
```

    ## Source: local data frame [48 x 6]
    ## Groups: orgResults, n [?]
    ## 
    ## # A tibble: 48 x 6
    ##      orgResults     n   statistic       avg    ci_low   ci_high
    ##           <chr> <chr>       <chr>     <dbl>     <dbl>     <dbl>
    ##  1 A. baumannii     1    Accuracy 0.6387172 0.6093237 0.6686752
    ##  2 A. baumannii     1   Precision 0.4564523 0.4182856 0.4932799
    ##  3 A. baumannii     1 Sensitivity 1.0000000 1.0000000 1.0000000
    ##  4 A. baumannii     1 Specificity 0.4813829 0.4450950 0.5195947
    ##  5 A. baumannii     2    Accuracy 0.6595055 0.6289980 0.6885661
    ##  6 A. baumannii     2   Precision 0.4826549 0.4444401 0.5214545
    ##  7 A. baumannii     2 Sensitivity 1.0000000 1.0000000 1.0000000
    ##  8 A. baumannii     2 Specificity 0.5009819 0.4630402 0.5383503
    ##  9 A. baumannii     3    Accuracy 0.7112633 0.6830169 0.7384189
    ## 10 A. baumannii     3   Precision 0.5079206 0.4659656 0.5485759
    ## # ... with 38 more rows
…
mixedResStats <- mixedAbResStats %>%
    full_join(mixedKpResStats) %>%
    gather(statistic, value, -orgResults, -n, -replicate) %>%
    group_by(orgResults, n, statistic) %>%
    summarize(avg = mean(value),
              ci_low = quantile(value, 0.05 / 2),
              ci_high = quantile(value, 1 - 0.05 / 2))

mixedResStats
```

    ## Source: local data frame [48 x 6]
    ## Groups: orgResults, n [?]
    ## 
    ## # A tibble: 48 x 6
    ##      orgResults     n   statistic       avg    ci_low   ci_high
    ##           <chr> <chr>       <chr>     <dbl>     <dbl>     <dbl>
    ##  1 A. baumannii     1    Accuracy 0.4623663 0.4332521 0.4921818
    ##  2 A. baumannii     1   Precision 0.2313406 0.1994379 0.2621399
    ##  3 A. baumannii     1 Sensitivity 1.0000000 1.0000000 1.0000000
    ##  4 A. baumannii     1 Specificity 0.3585691 0.3271125 0.3911548
    ##  5 A. baumannii     2    Accuracy 0.4460136 0.4153962 0.4756292
    ##  6 A. baumannii     2   Precision 0.2196744 0.1902632 0.2500083
    ##  7 A. baumannii     2 Sensitivity 1.0000000 1.0000000 1.0000000
    ##  8 A. baumannii     2 Specificity 0.3436398 0.3124200 0.3747160
    ##  9 A. baumannii     3    Accuracy 0.4810933 0.4499987 0.5132591
    ## 10 A. baumannii     3   Precision 0.2214491 0.1899262 0.2527825
    ## # ... with 38 more rows
…
